[
  {
    "objectID": "index.html",
    "href": "index.html",
    "title": "",
    "section": "",
    "text": "The Department for Education routinely uses the statistic:\n\n“90% of schools are now rated Good or Outstanding, up from 68% in 2010”\n\n\n\n\nThis claim is, perhaps unsurprisingly, true.\nWe expect such government lines to be factually accurate, after all there is an army of civil servants rigorously checking and re-checking these statistics before they are stated in public. So it is true; 68% of schools were Good or Outstanding at the end of the 2009/10 academic year, and at the end of the 2022/23 academic year this figure was 89%. However, as with all such simple headlines there is a lot more nuance hiding behind it.\nIn the following short piece I uncover some of this nuance and show why we should be careful in how we go about interpreting DfE’s headline claim. Particularly with regard to the implication of such a statement, that school standards have therefore improved over this period. This short blog focuses on exploring the veracity of the claim, not the more fundamental question of whether one-word Ofsted judgements are a fair and accurate why of assessing school performance.\nFigure 1 shows the percentage of schools with each Ofsted grade at the end of each school year since 2009/10.\n\n\n\n\n\nFigure 1: Ofsted grades, 2009/10 to 2022/23\n\n\n\n\nThe first omission of the headline figure is that whilst the percentage of Good or Outstanding schools combined has steadily increased over the period, the percentage of Outstanding schools has actually fallen from 18% to 16% since 2010. Table 1 shows the most recent data as of March 31st 2024. This shows the fraction of Outstanding schools continues to fall. Today there are a third less Outstanding schools (14%) compared to a peak in 2016/17 and 2017/18 (21%). However, it should be noted that between 2012 and 2020, schools that had been judged Outstanding were legally exempt from further regular inspection, unless there were specific concerns about the school.\n\n\n\n\n\n\n\n\nTable 1:  Ofsted grades as at 31st March 2024 \n  \n    \n      \n      \n        Schools\n      \n      \n        Pupils\n      \n    \n    \n      Number\n      Percent\n      Number\n      Percent\n    \n  \n  \n    \n       \n    \n    Outstanding\n3,155\n14%\n1,358,160\n16%\n    Good\n16,481\n75%\n6,057,251\n73%\n     \n19,636\n89%\n7,415,411\n90%\n    \n        \n    \n    Requires Improvement\n1,759\n8%\n680,738\n8%\n    Inadequate\n425\n2%\n152,218\n2%\n    Not inspected\n177\n1%\n21,632\n0%\n      \n2,361\n11%\n854,588\n10%\n  \n  \n  \n    \n       Source: Ofsted Management Information as at 31st March 2024\n    \n  \n\n\n\n\n\n\n\n\n\n\nFigure 2: Ofsted grades as at 31st March 2024, by phase\n\n\n\n\n\n\nFigure 2 shows there is also variation across phase. The headline therefore hides that whilst 91% of Primary schools are currently rated Good or Outstanding, this is true of only 83% of Secondary schools. However, a greater percentage of Secondary schools are currently rated Outstanding (15%) compared to Primary schools (12%).\n\n\n\nThe headline also does not touch on how long has it been since schools were last inspected?\nThis is important because if schools have not been inspected for a long time, we can not be sure that the ratings are an accurate reflection of performance today.\nWhilst the exemption on inspecting Outstanding schools was lifted in 2020, many Outstanding, and even Good schools, have not been inspected for a long time. Table 2 shows that on average, schools currently rated Outstanding were last inspected 7.3 years ago. Schools currently rated Good have typically been inspected more recently, but still on average they were last inspected 6.1 years ago.\n\n\n\n\n\n\nTable 2:  Average time since last graded Ofsted inspection \n  \n    \n      \n      Average days since  last inspection\n      Average date of  last inspection\n    \n  \n  \n    \n       \n    \n    Outstanding\n2,669\n2016-12-09\n    Good\n2,209\n2018-03-14\n    \n        \n    \n    Requires Improvement\n556\n2022-09-22\n    Inadequate\n928\n2021-09-15\n  \n  \n  \n    \n       Source: Ofsted Management Information as at 31st March 2024\n    \n  \n\n\n\n\n\n\n\n\nAdmittedly, only very few (68) Good or Outstanding schools have not been inspected since 2010, the year the headline figure refers to. However, 38% of currently Outstanding schools and 27% of currently Good schools have not been inspected in the last 10 years.\nThat means that around 1.9 million, or almost 1 in 4, pupils currently attend a Good or Outstanding school that has not been inspected in the last 10 years.\n\nChartsTable\n\n\n\n\n\n\n\n\n\nFigure 3: Number of schools not inspected before date\n\n\n\n\n\n\n\n\n\n\n\n\n\n\n\n\n\n\n\nTable 3:  Schools not inspected since 2009/10 and 2013/14 \n  \n    \n      \n      \n        Schools\n      \n      \n        Pupils\n      \n    \n    \n      Number\n      Percent\n      Number\n      Percent\n    \n  \n  \n    \n      2009/10\n    \n    Outstanding\n50\n2%\n15,581\n1%\n    Good\n18\n0%\n5,619\n0%\n    \n      2013/14\n    \n    Outstanding\n1,194\n38%\n429,471\n32%\n    Good\n4,502\n27%\n1,447,242\n24%\n  \n  \n  \n    \n       Source: Ofsted Management Information as at 31st March 2024\n    \n  \n\n\n\n\n\n\n\n\n\n\n\nThis still begs the question; is it really a problem that these schools have not been inspected for such a long time?\nOver the last 10 years, 2,713 Outstanding schools have been inspected. Table 4 shows the outcomes of the inspections of these schools. Of these previously Outstanding schools, only 28% retained their Outstanding rating. Taken together with the relatively high fraction of schools that have not been inspected in the last 10 years, this suggests the headline figure could be a misleading representation of the true performance of schools today.\n\n\n\n\n\n\nTable 4:  Previously Outstanding schools \n  \n    \n      \n      \n        Schools\n      \n      \n        Pupils\n      \n    \n    \n      Number\n      Percent\n      Number\n      Percent\n    \n  \n  \n    Outstanding\n748\n28%\n416,897\n33%\n    Good\n1,741\n64%\n742,989\n60%\n    Requires Improvement\n185\n7%\n73,951\n6%\n    Inadequate\n39\n1%\n12,492\n1%\n    Total\n2,713\n100%\n1,246,329\n100%\n  \n  \n  \n    \n       Source: Ofsted Management Information as at 31st March 2024\n    \n  \n\n\n\n\n\n\n\n\nAnother potential challenge to the headline figures is that 3,389 schools have undergone academisation or been re-brokered since their last Ofsted inspection. These changes often go hand in hand with significant changes in school governance structures, and so the Ofsted grades of these schools may not be a good reflection of their performance today. Table 5 shows that around 15% of currently Good or Outstanding schools have academised or been re-brokered since their last Ofsted inspection.\n\n\n\n\n\n\nTable 5:  Academisation and re-brokering since last Ofsted inspection \n  \n    \n      \n      \n        Schools\n      \n      \n        Pupils\n      \n    \n    \n      Number\n      Percent\n      Number\n      Percent\n    \n  \n  \n    Outstanding\n476\n15%\n147,848\n11%\n    Good\n2,408\n15%\n701,349\n12%\n    Requires Improvement\n236\n13%\n32,867\n5%\n    Inadequate\n269\n63%\n72,726\n48%\n  \n  \n  \n    \n       Source: Ofsted Management Information as at 31st March 2024\n    \n  \n\n\n\n\n\nSo, all in all, whilst the DfE’s headline is factually correct, it hides a lot if we want to understand whether this means school standards have improved. I have shown that:\n\nThe fraction of Outstanding schools appears to be falling and is less than in 2010.\nOnly 83% of Secondary schools are Good or Outstanding.\nOfsted grades may not be a good reflection of current performance;\n\nThe average Outstanding school hasn’t been inspected for over 7 years and the average Good school for 6 years. Important as we know re-inspection of Outstanding schools often leads to a change in grade.\n15% of currently Good or Outstanding schools are operating under different governance arrangements to when they were last inspected."
  }
]